<?xml version="1.0" encoding="UTF-8" standalone="no"?>
<!-- Generator: Adobe Illustrator 22.0.1, SVG Export Plug-In . SVG Version: 6.00 Build 0)  -->

<svg
   xmlns:dc="http://purl.org/dc/elements/1.1/"
   xmlns:cc="http://creativecommons.org/ns#"
   xmlns:rdf="http://www.w3.org/1999/02/22-rdf-syntax-ns#"
   xmlns:svg="http://www.w3.org/2000/svg"
   xmlns="http://www.w3.org/2000/svg"
   xmlns:sodipodi="http://sodipodi.sourceforge.net/DTD/sodipodi-0.dtd"
   xmlns:inkscape="http://www.inkscape.org/namespaces/inkscape"
   version="1.1"
   id="Ebene_1"
   x="0px"
   y="0px"
   viewBox="0 0 141.3 165.1"
   style="enable-background:new 0 0 141.3 165.1;"
   xml:space="preserve"
   sodipodi:docname="logo.svg"
   inkscape:version="0.92.3 (2405546, 2018-03-11)"><metadata
   id="metadata16"><rdf:RDF><cc:Work
       rdf:about=""><dc:format>image/svg+xml</dc:format><dc:type
         rdf:resource="http://purl.org/dc/dcmitype/StillImage" /></cc:Work></rdf:RDF></metadata><defs
   id="defs14" /><sodipodi:namedview
   pagecolor="#ffffff"
   bordercolor="#666666"
   borderopacity="1"
   objecttolerance="10"
   gridtolerance="10"
   guidetolerance="10"
   inkscape:pageopacity="0"
   inkscape:pageshadow="2"
   inkscape:window-width="1920"
   inkscape:window-height="1016"
   id="namedview12"
   showgrid="false"
   inkscape:zoom="5.7177466"
   inkscape:cx="64.32129"
   inkscape:cy="73.766229"
   inkscape:window-x="0"
   inkscape:window-y="27"
   inkscape:window-maximized="1"
   inkscape:current-layer="Ebene_1" />
<style
   type="text/css"
   id="style2">
	.st0{fill:url(#SVGID_1_);}
</style>
<linearGradient
   id="SVGID_1_"
   gradientUnits="userSpaceOnUse"
   x1="-226.4952"
   y1="395.6731"
   x2="-223.6841"
   y2="401.1088"
   gradientTransform="matrix(22.178259,0,0,-25.917197,5061.8277,10421.299)">
	<stop
   offset="0"
   style="stop-color:#FF7854"
   id="stop4" />
	<stop
   offset="1"
   style="stop-color:#FD267D"
   id="stop6" />
</linearGradient>
<path
   class="st0"
   d="M 48.273724,69.996329 C 73.46189,61.996313 77.422293,38.867558 74.253971,18.035837 c 0,0 0,-1.188121 0.79208,-0.79208 24.396078,11.960417 51.564449,37.148582 51.564449,75.960536 0,28.752527 -22.81193,54.732777 -56.000101,54.732777 -35.960462,0 -55.920895,-25.18817 -55.920895,-55.128822 0,-17.980227 11.960418,-35.960459 25.980245,-43.960473 0,0 1.188122,0 1.188122,0.79208 0,3.960404 1.584161,14.019829 6.019813,19.960433 z"
   id="path9"
   style="fill:url(#SVGID_1_);stroke-width:0.79208064;image-rendering:auto"
   inkscape:connector-curvature="0" />
</svg>